%YAML 1.1
%TAG !u! tag:unity3d.com,2011:
--- !u!1 &6165585317122691949
GameObject:
  m_ObjectHideFlags: 0
  m_CorrespondingSourceObject: {fileID: 0}
  m_PrefabInstance: {fileID: 0}
  m_PrefabAsset: {fileID: 0}
  serializedVersion: 6
  m_Component:
  - component: {fileID: 3213732648686626749}
  - component: {fileID: 8156772600132822278}
  m_Layer: 0
  m_Name: PULoc_5_Condado
  m_TagString: Untagged
  m_Icon: {fileID: 0}
  m_NavMeshLayer: 0
  m_StaticEditorFlags: 0
  m_IsActive: 1
--- !u!4 &3213732648686626749
Transform:
  m_ObjectHideFlags: 0
  m_CorrespondingSourceObject: {fileID: 0}
  m_PrefabInstance: {fileID: 0}
  m_PrefabAsset: {fileID: 0}
  m_GameObject: {fileID: 6165585317122691949}
  m_LocalRotation: {x: 0, y: -0.043619405, z: 0, w: 0.9990483}
  m_LocalPosition: {x: -38.94, y: 1.96, z: -65.21}
  m_LocalScale: {x: 1, y: 1, z: 1}
  m_Children: []
  m_Father: {fileID: 0}
  m_RootOrder: 0
  m_LocalEulerAnglesHint: {x: 0, y: -5, z: 0}
--- !u!33 &8156772600132822278
MeshFilter:
  m_ObjectHideFlags: 0
  m_CorrespondingSourceObject: {fileID: 0}
  m_PrefabInstance: {fileID: 0}
  m_PrefabAsset: {fileID: 0}
  m_GameObject: {fileID: 6165585317122691949}
  m_Mesh: {fileID: 10202, guid: 0000000000000000e000000000000000, type: 0}
