%YAML 1.1
%TAG !u! tag:unity3d.com,2011:
--- !u!1 &6862329828003975969
GameObject:
  m_ObjectHideFlags: 0
  m_CorrespondingSourceObject: {fileID: 0}
  m_PrefabInstance: {fileID: 0}
  m_PrefabAsset: {fileID: 0}
  serializedVersion: 6
  m_Component:
  - component: {fileID: 8155116007306729901}
  - component: {fileID: 1492854129007207957}
  - component: {fileID: 3614372464337110608}
  m_Layer: 0
  m_Name: Chair_Green
  m_TagString: Untagged
  m_Icon: {fileID: 0}
  m_NavMeshLayer: 0
  m_StaticEditorFlags: 0
  m_IsActive: 1
--- !u!4 &8155116007306729901
Transform:
  m_ObjectHideFlags: 0
  m_CorrespondingSourceObject: {fileID: 0}
  m_PrefabInstance: {fileID: 0}
  m_PrefabAsset: {fileID: 0}
  m_GameObject: {fileID: 6862329828003975969}
  m_LocalRotation: {x: 0, y: 0, z: 0, w: 1}
  m_LocalPosition: {x: -0.2366836, y: -1.5444946, z: -25.673765}
  m_LocalScale: {x: 1, y: 1, z: 1}
  m_Children:
  - {fileID: 2614870347602706706}
  m_Father: {fileID: 0}
  m_RootOrder: 0
  m_LocalEulerAnglesHint: {x: 0, y: 0, z: 0}
--- !u!114 &1492854129007207957
MonoBehaviour:
  m_ObjectHideFlags: 0
  m_CorrespondingSourceObject: {fileID: 0}
  m_PrefabInstance: {fileID: 0}
  m_PrefabAsset: {fileID: 0}
  m_GameObject: {fileID: 6862329828003975969}
  m_Enabled: 1
  m_EditorHideFlags: 0
  m_Script: {fileID: 11500000, guid: 38dacf750842c4c4c896842302a7fc48, type: 3}
  m_Name: 
  m_EditorClassIdentifier: 
--- !u!65 &3614372464337110608
BoxCollider:
  m_ObjectHideFlags: 0
  m_CorrespondingSourceObject: {fileID: 0}
  m_PrefabInstance: {fileID: 0}
  m_PrefabAsset: {fileID: 0}
  m_GameObject: {fileID: 6862329828003975969}
  m_Material: {fileID: 0}
  m_IsTrigger: 0
  m_Enabled: 1
  serializedVersion: 2
  m_Size: {x: 2.118307, y: 1.7079377, z: 1.9845657}
  m_Center: {x: 0, y: 0.19488764, z: 0.11714363}
--- !u!1001 &2577004323723716345
PrefabInstance:
  m_ObjectHideFlags: 0
  serializedVersion: 2
  m_Modification:
    m_TransformParent: {fileID: 8155116007306729901}
    m_Modifications:
    - target: {fileID: -8679921383154817045, guid: cfd4b96fac27a3e43abe45a5a5805587,
        type: 3}
      propertyPath: m_RootOrder
      value: 0
      objectReference: {fileID: 0}
    - target: {fileID: -8679921383154817045, guid: cfd4b96fac27a3e43abe45a5a5805587,
        type: 3}
      propertyPath: m_LocalScale.x
      value: 2
      objectReference: {fileID: 0}
    - target: {fileID: -8679921383154817045, guid: cfd4b96fac27a3e43abe45a5a5805587,
        type: 3}
      propertyPath: m_LocalPosition.x
      value: 0
      objectReference: {fileID: 0}
    - target: {fileID: -8679921383154817045, guid: cfd4b96fac27a3e43abe45a5a5805587,
        type: 3}
      propertyPath: m_LocalPosition.y
      value: 0
      objectReference: {fileID: 0}
    - target: {fileID: -8679921383154817045, guid: cfd4b96fac27a3e43abe45a5a5805587,
        type: 3}
      propertyPath: m_LocalPosition.z
      value: 0
      objectReference: {fileID: 0}
    - target: {fileID: -8679921383154817045, guid: cfd4b96fac27a3e43abe45a5a5805587,
        type: 3}
      propertyPath: m_LocalRotation.w
      value: 1
      objectReference: {fileID: 0}
    - target: {fileID: -8679921383154817045, guid: cfd4b96fac27a3e43abe45a5a5805587,
        type: 3}
      propertyPath: m_LocalRotation.x
      value: 0
      objectReference: {fileID: 0}
    - target: {fileID: -8679921383154817045, guid: cfd4b96fac27a3e43abe45a5a5805587,
        type: 3}
      propertyPath: m_LocalRotation.y
      value: 0
      objectReference: {fileID: 0}
    - target: {fileID: -8679921383154817045, guid: cfd4b96fac27a3e43abe45a5a5805587,
        type: 3}
      propertyPath: m_LocalRotation.z
      value: 0
      objectReference: {fileID: 0}
    - target: {fileID: -8679921383154817045, guid: cfd4b96fac27a3e43abe45a5a5805587,
        type: 3}
      propertyPath: m_LocalEulerAnglesHint.x
      value: 0
      objectReference: {fileID: 0}
    - target: {fileID: -8679921383154817045, guid: cfd4b96fac27a3e43abe45a5a5805587,
        type: 3}
      propertyPath: m_LocalEulerAnglesHint.y
      value: 0
      objectReference: {fileID: 0}
    - target: {fileID: -8679921383154817045, guid: cfd4b96fac27a3e43abe45a5a5805587,
        type: 3}
      propertyPath: m_LocalEulerAnglesHint.z
      value: 0
      objectReference: {fileID: 0}
    - target: {fileID: -7511558181221131132, guid: cfd4b96fac27a3e43abe45a5a5805587,
        type: 3}
      propertyPath: m_Materials.Array.data[0]
      value: 
      objectReference: {fileID: 2100000, guid: 7637acedd0cfda74da9a21ea15d8eca2, type: 2}
    - target: {fileID: 919132149155446097, guid: cfd4b96fac27a3e43abe45a5a5805587,
        type: 3}
      propertyPath: m_Name
      value: Chair
      objectReference: {fileID: 0}
    m_RemovedComponents: []
  m_SourcePrefab: {fileID: 100100000, guid: cfd4b96fac27a3e43abe45a5a5805587, type: 3}
--- !u!4 &2614870347602706706 stripped
Transform:
  m_CorrespondingSourceObject: {fileID: -8679921383154817045, guid: cfd4b96fac27a3e43abe45a5a5805587,
    type: 3}
  m_PrefabInstance: {fileID: 2577004323723716345}
  m_PrefabAsset: {fileID: 0}
