%YAML 1.1
%TAG !u! tag:unity3d.com,2011:
--- !u!114 &11400000
MonoBehaviour:
  m_ObjectHideFlags: 0
  m_CorrespondingSourceObject: {fileID: 0}
  m_PrefabInstance: {fileID: 0}
  m_PrefabAsset: {fileID: 0}
  m_GameObject: {fileID: 0}
  m_Enabled: 1
  m_EditorHideFlags: 0
  m_Script: {fileID: 11500000, guid: 093286084a3d1994a9c28281a1c38b1d, type: 3}
  m_Name: PlayFabSharedSettings
  m_EditorClassIdentifier: 
  TitleId: A50E1
  DeveloperSecretKey: BI3RIP3ZI59TKKDP9IEFNCGGNBSDZEQ5K3EPG89CF9F8R3BO57
  ProductionEnvironmentUrl: 
  RequestType: 2
  AdvertisingIdType: 
  AdvertisingIdValue: 
  DisableAdvertising: 0
  DisableDeviceInfo: 0
  DisableFocusTimeCollection: 0
  RequestTimeout: 2000
  RequestKeepAlive: 1
  CompressApiData: 1
  LogLevel: 12
  LoggerHost: 
  LoggerPort: 0
  EnableRealTimeLogging: 0
  LogCapLimit: 30
