%YAML 1.1
%TAG !u! tag:unity3d.com,2011:
--- !u!1 &4821283416206963933
GameObject:
  m_ObjectHideFlags: 0
  m_CorrespondingSourceObject: {fileID: 0}
  m_PrefabInstance: {fileID: 0}
  m_PrefabAsset: {fileID: 0}
  serializedVersion: 6
  m_Component:
  - component: {fileID: 4821283416206963932}
  m_Layer: 0
  m_Name: Location_Intersection_E
  m_TagString: Untagged
  m_Icon: {fileID: 0}
  m_NavMeshLayer: 0
  m_StaticEditorFlags: 0
  m_IsActive: 1
--- !u!4 &4821283416206963932
Transform:
  m_ObjectHideFlags: 0
  m_CorrespondingSourceObject: {fileID: 0}
  m_PrefabInstance: {fileID: 0}
  m_PrefabAsset: {fileID: 0}
  m_GameObject: {fileID: 4821283416206963933}
  m_LocalRotation: {x: -0, y: -0.32247406, z: -0, w: 0.9465784}
  m_LocalPosition: {x: -32.28, y: 2.33, z: -74.59}
  m_LocalScale: {x: 3.3077784, y: 3.3077784, z: 3.3077784}
  m_Children: []
  m_Father: {fileID: 0}
  m_RootOrder: 0
  m_LocalEulerAnglesHint: {x: 0, y: -37.625, z: 0}
