%YAML 1.1
%TAG !u! tag:unity3d.com,2011:
--- !u!21 &2100000
Material:
  serializedVersion: 6
  m_ObjectHideFlags: 0
  m_CorrespondingSourceObject: {fileID: 0}
  m_PrefabInstance: {fileID: 0}
  m_PrefabAsset: {fileID: 0}
  m_Name: Glass 1
  m_Shader: {fileID: 4800000, guid: 0e9d5a909a1f7e84882a534d0d11e49f, type: 3}
  m_ShaderKeywords: _ALPHABLEND_ON _NORMALMAP _SMOOTHNESS_TEXTURE_ALBEDO_CHANNEL_A
    _SPECGLOSSMAP
  m_LightmapFlags: 4
  m_EnableInstancingVariants: 0
  m_DoubleSidedGI: 0
  m_CustomRenderQueue: -1
  stringTagMap: {}
  disabledShaderPasses: []
  m_SavedProperties:
    serializedVersion: 3
    m_TexEnvs:
    - _BumpMap:
        m_Texture: {fileID: 2800000, guid: 981ca2b6b2bdd8d4fa1dc219905fe2dd, type: 3}
        m_Scale: {x: 1, y: 1}
        m_Offset: {x: 0, y: 0}
    - _Cube:
        m_Texture: {fileID: 0}
        m_Scale: {x: 1, y: 1}
        m_Offset: {x: 0, y: 0}
    - _DetailAlbedoMap:
        m_Texture: {fileID: 0}
        m_Scale: {x: 1, y: 1}
        m_Offset: {x: 0, y: 0}
    - _DetailMask:
        m_Texture: {fileID: 0}
        m_Scale: {x: 1, y: 1}
        m_Offset: {x: 0, y: 0}
    - _DetailNormalMap:
        m_Texture: {fileID: 0}
        m_Scale: {x: 1, y: 1}
        m_Offset: {x: 0, y: 0}
    - _EmissionMap:
        m_Texture: {fileID: 0}
        m_Scale: {x: 1, y: 1}
        m_Offset: {x: 1.4, y: 0}
    - _MainTex:
        m_Texture: {fileID: 2800000, guid: f72c213b7d24a354c98eb36df18720f3, type: 3}
        m_Scale: {x: 1, y: 1}
        m_Offset: {x: 1.4, y: 0}
    - _MetallicGlossMap:
        m_Texture: {fileID: 0}
        m_Scale: {x: 1, y: 1}
        m_Offset: {x: 0, y: 0}
    - _OcclusionMap:
        m_Texture: {fileID: 0}
        m_Scale: {x: 1, y: 1}
        m_Offset: {x: 0, y: 0}
    - _ParallaxMap:
        m_Texture: {fileID: 0}
        m_Scale: {x: 1, y: 1}
        m_Offset: {x: 0, y: 0}
    - _SpecGlossMap:
        m_Texture: {fileID: 2800000, guid: 29dc2a284e747264b8545277de848cbf, type: 3}
        m_Scale: {x: 1, y: 1}
        m_Offset: {x: 0, y: 0}
    m_Floats:
    - _BumpScale: 1
    - _Cutoff: 0.5
    - _DetailNormalMapScale: 1.99
    - _DstBlend: 10
    - _GlossMapScale: 0.914
    - _Glossiness: 1
    - _GlossyReflections: 1
    - _LightSmoothness: 0
    - _LightThreshold: 0.116
    - _MKEditorShowDetailBehavior: 0
    - _MKEditorShowDissolveBehavior: 0
    - _MKEditorShowLightBehavior: 0
    - _MKEditorShowMainBehavior: 1
    - _MKEditorShowOutlineBehavior: 0
    - _MKEditorShowReflectionBehavior: 0
    - _MKEditorShowRenderBehavior: 0
    - _MKEditorShowRimBehavior: 0
    - _MKEditorShowShadowBehavior: 0
    - _MKEditorShowSketchBehavior: 0
    - _MKEditorShowSpecularBehavior: 0
    - _MKEditorShowTranslucentBehavior: 0
    - _Metallic: 0
    - _Mode: 2
    - _OcclusionStrength: 1
    - _OutlineSize: 0.02
    - _Parallax: 0.02
    - _RimIntensity: 0.283
    - _RimSize: 0.16
    - _RimSmoothness: 0
    - _ShadowIntensity: 1.753
    - _Shininess: 0.01
    - _SmoothnessTextureChannel: 1
    - _SpecularHighlights: 1
    - _SpecularIntensity: 0.737
    - _SrcBlend: 5
    - _UVSec: 1
    - _UseAoMap: 0
    - _UseColorMap: 1
    - _UseEmissiveMap: 0
    - _UseMetallicMap: 0
    - _UseNormalMap: 1
    - _UseRoughnessMap: 1
    - _ZWrite: 0
    m_Colors:
    - _Color: {r: 0.863538, g: 0.92186195, b: 0.9705882, a: 1}
    - _EmissionColor: {r: 0, g: 0.71034503, b: 1, a: 0}
    - _HighlightColor: {r: 1, g: 1, b: 1, a: 1}
    - _OutlineColor: {r: 0, g: 0, b: 0, a: 1}
    - _ReflectColor: {r: 1, g: 1, b: 1, a: 0.5}
    - _RimColor: {r: 1, g: 1, b: 1, a: 1}
    - _ShadowColor: {r: 0.42647058, g: 0.42647058, b: 0.42647058, a: 1}
    - _SpecColor: {r: 0.2, g: 0.2, b: 0.2, a: 1}
    - _UvOffset: {r: 1.4, g: 0, b: 0, a: 0}
    - _UvTiling: {r: 1, g: 1, b: 0, a: 0}
