%YAML 1.1
%TAG !u! tag:unity3d.com,2011:
--- !u!1 &3505888990114090430
GameObject:
  m_ObjectHideFlags: 0
  m_CorrespondingSourceObject: {fileID: 0}
  m_PrefabInstance: {fileID: 0}
  m_PrefabAsset: {fileID: 0}
  serializedVersion: 6
  m_Component:
  - component: {fileID: 3505888990114090428}
  - component: {fileID: 3505888990114090431}
  m_Layer: 0
  m_Name: Loc_Dog_4
  m_TagString: Untagged
  m_Icon: {fileID: 0}
  m_NavMeshLayer: 0
  m_StaticEditorFlags: 0
  m_IsActive: 1
--- !u!4 &3505888990114090428
Transform:
  m_ObjectHideFlags: 0
  m_CorrespondingSourceObject: {fileID: 0}
  m_PrefabInstance: {fileID: 0}
  m_PrefabAsset: {fileID: 0}
  m_GameObject: {fileID: 3505888990114090430}
  m_LocalRotation: {x: 0.00029726472, y: -0.044739246, z: -0.003837451, w: 0.9989913}
  m_LocalPosition: {x: 42.59, y: 1.26, z: -75.82}
  m_LocalScale: {x: 1.0773413, y: 1, z: 1}
  m_Children: []
  m_Father: {fileID: 0}
  m_RootOrder: 0
  m_LocalEulerAnglesHint: {x: 0.014, y: -5.129, z: -0.441}
--- !u!33 &3505888990114090431
MeshFilter:
  m_ObjectHideFlags: 0
  m_CorrespondingSourceObject: {fileID: 0}
  m_PrefabInstance: {fileID: 0}
  m_PrefabAsset: {fileID: 0}
  m_GameObject: {fileID: 3505888990114090430}
  m_Mesh: {fileID: 10202, guid: 0000000000000000e000000000000000, type: 0}
